가구,1044,2858,4810,NNBC,*,F,가구,*,*,*,*
가락,1045,3219,4901,NNBC,*,T,가락,*,*,*,*
가마,1046,2859,4381,NNBC,*,F,가마,*,*,*,*
가마니,1047,2860,4582,NNBC,*,F,가마니,*,*,*,*
가밀,1048,3220,4658,NNBC,*,T,가밀,*,*,*,*
가우스,1049,2861,4582,NNBC,*,F,가우스,*,*,*,*
가족,1050,3221,3378,NNBC,*,T,가족,*,*,*,*
가지,1051,2862,2926,NNBC,*,F,가지,*,*,*,*
가호,1057,2863,4644,NNBC,*,F,가호,*,*,*,*
각,1058,3222,6199,NNBC,*,T,각,*,*,*,*
간,1059,3223,6978,NNBC,*,T,간,*,*,*,*
갈,1060,3224,6233,NNBC,*,T,갈,*,*,*,*
갈래,1061,2864,4906,NNBC,*,F,갈래,*,*,*,*
감,1062,3225,6738,NNBC,*,T,감,*,*,*,*
감마,1063,2865,4583,NNBC,*,F,감마,*,*,*,*
갑,1064,3226,5533,NNBC,*,T,갑,*,*,*,*
갓,1065,3227,4979,NNBC,*,T,갓,*,*,*,*
강다리,1066,2866,4582,NNBC,*,F,강다리,*,*,*,*
개,1067,2867,4118,NNBC,*,F,개,*,*,*,*
개국,1068,3228,3864,NNBC,*,T,개국,*,*,*,*
개년,1069,3229,4076,NNBC,*,T,개년,*,*,*,*
개비,1070,2868,4779,NNBC,*,F,개비,*,*,*,*
개소,1071,2869,4583,NNBC,*,F,개소,*,*,*,*
개월,1072,3230,2335,NNBC,*,T,개월,*,*,*,*
개조,1073,2870,4875,NNBC,*,F,개조,*,*,*,*
갤런,1082,3231,4582,NNBC,*,T,갤런,*,*,*,*
거듬,1084,3232,4582,NNBC,*,T,거듬,*,*,*,*
거리,1085,2871,5890,NNBC,*,F,거리,*,*,*,*
건,1086,3233,5416,NNBC,*,T,건,*,*,*,*
걸음,1087,3234,5189,NNBC,*,T,걸음,*,*,*,*
게라,1088,2872,4723,NNBC,*,F,게라,*,*,*,*
게브,1089,2873,4582,NNBC,*,F,게브,*,*,*,*
결,1090,3235,5945,NNBC,*,T,결,*,*,*,*
겹,1091,3236,5789,NNBC,*,T,겹,*,*,*,*
경,1092,3237,6896,NNBC,*,T,경,*,*,*,*
고랑,1093,3238,4582,NNBC,*,T,고랑,*,*,*,*
고랑배미,1094,2874,4582,NNBC,*,F,고랑배미,*,*,*,*
고리,1095,2875,4889,NNBC,*,F,고리,*,*,*,*
곡,1096,3239,5900,NNBC,*,T,곡,*,*,*,*
곤,1097,3240,5481,NNBC,*,T,곤,*,*,*,*
공기,1098,2876,4416,NNBC,*,F,공기,*,*,*,*
과,1099,2877,7279,NNBC,*,F,과,*,*,*,*
과목,1100,3241,4251,NNBC,*,T,과목,*,*,*,*
관,1101,3242,6816,NNBC,*,T,관,*,*,*,*
광년,1102,3243,4497,NNBC,*,T,광년,*,*,*,*
광주리,1103,2878,4582,NNBC,*,F,광주리,*,*,*,*
괴,1104,2879,5704,NNBC,*,F,괴,*,*,*,*
교,1105,2880,6490,NNBC,*,F,교,*,*,*,*
교시,1106,2881,4235,NNBC,*,F,교시,*,*,*,*
구,1107,2882,7044,NNBC,*,F,구,*,*,*,*
국자,1108,2883,4636,NNBC,*,F,국자,*,*,*,*
국제볼트,1109,2884,4582,NNBC,*,F,국제볼트,*,*,*,*
국제암페어,1110,2885,4582,NNBC,*,F,국제암페어,*,*,*,*
국제옴,1111,3244,4582,NNBC,*,T,국제옴,*,*,*,*
국제옹스트롱,1112,3245,4582,NNBC,*,T,국제옹스트롱,*,*,*,*
국제와트,1113,2886,4582,NNBC,*,F,국제와트,*,*,*,*
군,1114,3246,6673,NNBC,*,T,군,*,*,*,*
군단,1115,3247,4517,NNBC,*,T,군단,*,*,*,*
군데,1116,2887,3683,NNBC,*,F,군데,*,*,*,*
권,1121,3248,3899,NNBC,*,T,권,*,*,*,*
궤,1122,2888,4690,NNBC,*,F,궤,*,*,*,*
그램,1123,3249,3000,NNBC,*,T,그램,*,*,*,*
그램당량,1124,3250,4582,NNBC,*,T,그램당량,*,*,*,*
그램분자,1125,2889,4582,NNBC,*,F,그램분자,*,*,*,*
그램분자량,1126,3251,4582,NNBC,*,T,그램분자량,*,*,*,*
그램분자부피,1127,2890,4582,NNBC,*,F,그램분자부피,*,*,*,*
그램센티미터,1128,2891,4582,NNBC,*,F,그램센티미터,*,*,*,*
그램원자,1129,2892,4582,NNBC,*,F,그램원자,*,*,*,*
그램원자량,1130,3252,4582,NNBC,*,T,그램원자량,*,*,*,*
그램이온,1131,3253,4582,NNBC,*,T,그램이온,*,*,*,*
그램중,1132,3254,4582,NNBC,*,T,그램중,*,*,*,*
그램칼로리,1133,2893,4582,NNBC,*,F,그램칼로리,*,*,*,*
그램톤,1134,3255,4582,NNBC,*,T,그램톤,*,*,*,*
그램화학식량,1135,3256,4582,NNBC,*,T,그램화학식량,*,*,*,*
그레이,1136,2894,4447,NNBC,*,F,그레이,*,*,*,*
그레이드,1137,2895,4591,NNBC,*,F,그레이드,*,*,*,*
그레인,1138,3257,4582,NNBC,*,T,그레인,*,*,*,*
그로셴,1139,3258,4582,NNBC,*,T,그로셴,*,*,*,*
그로스,1140,2896,4572,NNBC,*,F,그로스,*,*,*,*
그로스톤,1141,3259,4582,NNBC,*,T,그로스톤,*,*,*,*
그루,1142,2897,4206,NNBC,*,F,그루,*,*,*,*
그룹,1143,3260,5523,NNBC,*,T,그룹,*,*,*,*
그릇,1144,3261,5158,NNBC,*,T,그릇,*,*,*,*
근,1145,3262,6549,NNBC,*,T,근,*,*,*,*
근쭝,1146,3263,4582,NNBC,*,T,근쭝,*,*,*,*
급,1147,3264,7316,NNBC,*,T,급,*,*,*,*
기,1148,2898,7261,NNBC,*,F,기,*,*,*,*
기가바이트,1149,2899,4423,NNBC,*,F,기가바이트,*,*,*,*
기가전자볼트,1150,2900,4582,NNBC,*,F,기가전자볼트,*,*,*,*
기니,1151,2901,4585,NNBC,*,F,기니,*,*,*,*
길,1155,3265,5714,NNBC,*,T,길,*,*,*,*
길더,1157,2902,4582,NNBC,*,F,길더,*,*,*,*
길버트,1158,2903,4582,NNBC,*,F,길버트,*,*,*,*
까벨트,1161,2904,4582,NNBC,*,F,까벨트,*,*,*,*
꼭지,1165,2905,4351,NNBC,*,F,꼭지,*,*,*,*
꾸러미,1166,2906,4592,NNBC,*,F,꾸러미,*,*,*,*
끗,1167,3266,4778,NNBC,*,T,끗,*,*,*,*
끝,1168,3267,4589,NNBC,*,T,끝,*,*,*,*
끼,1169,2907,5673,NNBC,*,F,끼,*,*,*,*
나노미터,1171,2908,4582,NNBC,*,F,나노미터,*,*,*,*
나노세컨드,1172,2909,4582,NNBC,*,F,나노세컨드,*,*,*,*
나노앰프,1173,2910,4582,NNBC,*,F,나노앰프,*,*,*,*
나노초,1174,2911,4582,NNBC,*,F,나노초,*,*,*,*
냄비,1175,2912,4523,NNBC,*,F,냄비,*,*,*,*
냉동톤,1176,3268,4582,NNBC,*,T,냉동톤,*,*,*,*
냥,1177,3269,4901,NNBC,*,T,냥,*,*,*,*
냥쭝,1178,3270,4582,NNBC,*,T,냥쭝,*,*,*,*
네퍼,1179,2913,4582,NNBC,*,F,네퍼,*,*,*,*
년,1180,3271,4676,NNBC,*,T,년,*,*,*,*
노르말,1184,3272,4582,NNBC,*,T,노르말,*,*,*,*
노리,1185,2914,5213,NNBC,*,F,노리,*,*,*,*
노이,1186,2915,4824,NNBC,*,F,노이,*,*,*,*
노트,1187,2916,5191,NNBC,*,F,노트,*,*,*,*
뉴턴,1188,3273,4601,NNBC,*,T,뉴턴,*,*,*,*
니트,1189,2917,4582,NNBC,*,F,니트,*,*,*,*
님,1190,3274,6083,NNBC,*,T,님,*,*,*,*
닢,1191,3275,4582,NNBC,*,T,닢,*,*,*,*
다릭,1192,3276,4582,NNBC,*,T,다릭,*,*,*,*
다발,1194,3277,4125,NNBC,*,T,다발,*,*,*,*
다스,1195,2918,4681,NNBC,*,F,다스,*,*,*,*
다인,1196,3278,4690,NNBC,*,T,다인,*,*,*,*
다임,1197,3279,4611,NNBC,*,T,다임,*,*,*,*
단,1198,3280,7065,NNBC,*,T,단,*,*,*,*
단계,1199,2919,4567,NNBC,*,F,단계,*,*,*,*
단락,1200,3281,4638,NNBC,*,T,단락,*,*,*,*
단보,1201,2920,4582,NNBC,*,F,단보,*,*,*,*
단원,1202,3282,3869,NNBC,*,T,단원,*,*,*,*
단지,1203,2921,4787,NNBC,*,F,단지,*,*,*,*
달,1204,3283,6476,NNBC,*,T,달,*,*,*,*
달란트,1205,2922,4582,NNBC,*,F,달란트,*,*,*,*
달러,1206,2923,3805,NNBC,*,F,달러,*,*,*,*
달톤,1207,3284,4582,NNBC,*,T,달톤,*,*,*,*
담불,1208,3285,4582,NNBC,*,T,담불,*,*,*,*
대,1209,2924,4830,NNBC,*,F,대,*,*,*,*
대괵,1210,3286,4582,NNBC,*,T,대괵,*,*,*,*
덩어리,1212,2925,4779,NNBC,*,F,덩어리,*,*,*,*
덩이,1213,2926,4350,NNBC,*,F,덩이,*,*,*,*
데나리온,1214,3287,4582,NNBC,*,T,데나리온,*,*,*,*
데니어,1215,2927,4582,NNBC,*,F,데니어,*,*,*,*
데시그램,1216,3288,3000,NNBC,*,T,데시그램,*,*,*,*
데시리터,1217,2928,4582,NNBC,*,F,데시리터,*,*,*,*
데시미터,1218,2929,4582,NNBC,*,F,데시미터,*,*,*,*
데시벨,1219,3289,4582,NNBC,*,T,데시벨,*,*,*,*
데시아르,1220,2930,4582,NNBC,*,F,데시아르,*,*,*,*
데카그램,1221,3290,3000,NNBC,*,T,데카그램,*,*,*,*
데카르,1222,2931,4737,NNBC,*,F,데카르,*,*,*,*
데카리터,1223,2932,4582,NNBC,*,F,데카리터,*,*,*,*
데카미터,1224,2933,4582,NNBC,*,F,데카미터,*,*,*,*
도,1225,2934,6593,NNBC,*,F,도,*,*,*,*
도브슨단위,1226,2935,4582,NNBC,*,F,도브슨단위,*,*,*,*
도일,1227,3291,5196,NNBC,*,T,도일,*,*,*,*
돈,1228,3292,5658,NNBC,*,T,돈,*,*,*,*
돈쭝,1229,3293,4582,NNBC,*,T,돈쭝,*,*,*,*
돌,1230,3294,6265,NNBC,*,T,돌,*,*,*,*
돌기,1231,2936,4582,NNBC,*,F,돌기,*,*,*,*
돌이,1232,2937,5563,NNBC,*,F,돌이,*,*,*,*
동,1234,3295,6119,NNBC,*,T,동,*,*,*,*
동무니,1235,2938,4582,NNBC,*,F,동무니,*,*,*,*
동이,1236,2939,5290,NNBC,*,F,동이,*,*,*,*
되,1237,2940,5332,NNBC,*,F,되,*,*,*,*
되지기,1238,2941,4582,NNBC,*,F,되지기,*,*,*,*
두,1239,2942,6403,NNBC,*,F,두,*,*,*,*
두름,1240,3296,4582,NNBC,*,T,두름,*,*,*,*
등,1241,3297,4699,NNBC,*,T,등,*,*,*,*
등급,1242,3298,4197,NNBC,*,T,등급,*,*,*,*
등분,1243,3299,4587,NNBC,*,T,등분,*,*,*,*
디그리데이,1244,2943,4582,NNBC,*,F,디그리데이,*,*,*,*
디나르,1245,2944,4582,NNBC,*,F,디나르,*,*,*,*
디르함,1246,3300,4582,NNBC,*,T,디르함,*,*,*,*
디바이,1247,2945,4582,NNBC,*,F,디바이,*,*,*,*
디옵터,1248,2946,4582,NNBC,*,F,디옵터,*,*,*,*
디피아이,1249,2947,4582,NNBC,*,F,디피아이,*,*,*,*
디피에스,1250,2948,4582,NNBC,*,F,디피에스,*,*,*,*
땀,1251,3301,4681,NNBC,*,T,땀,*,*,*,*
람다,1252,2949,4647,NNBC,*,F,람다,*,*,*,*
래드,1253,2950,4591,NNBC,*,F,래드,*,*,*,*
랜드,1254,2951,5118,NNBC,*,F,랜드,*,*,*,*
량,1255,3302,5514,NNBC,*,T,량,*,*,*,*
러더퍼드,1256,2952,4582,NNBC,*,F,러더퍼드,*,*,*,*
럭스,1257,2953,4582,NNBC,*,F,럭스,*,*,*,*
럼,1258,3303,5451,NNBC,*,T,럼,*,*,*,*
레우,1259,2954,4582,NNBC,*,F,레우,*,*,*,*
레프,1260,2955,4582,NNBC,*,F,레프,*,*,*,*
렌텐마르크,1261,2956,4582,NNBC,*,F,렌텐마르크,*,*,*,*
렘,1262,3304,4695,NNBC,*,T,렘,*,*,*,*
렙,1263,3305,4582,NNBC,*,T,렙,*,*,*,*
령,1264,3306,5671,NNBC,*,T,령,*,*,*,*
로드,1265,2957,4697,NNBC,*,F,로드,*,*,*,*
뢴트겐,1266,3307,4582,NNBC,*,T,뢴트겐,*,*,*,*
루멘,1267,3308,4582,NNBC,*,T,루멘,*,*,*,*
루멘시,1268,2958,4582,NNBC,*,F,루멘시,*,*,*,*
루멘초,1269,2959,4582,NNBC,*,F,루멘초,*,*,*,*
루블,1270,3309,4582,NNBC,*,T,루블,*,*,*,*
루피,1271,2960,4582,NNBC,*,F,루피,*,*,*,*
루피아,1272,2961,4582,NNBC,*,F,루피아,*,*,*,*
리,1273,2962,7167,NNBC,*,F,리,*,*,*,*
리라,1274,2963,6223,NNBC,*,F,리라,*,*,*,*
리브르,1275,2964,4582,NNBC,*,F,리브르,*,*,*,*
리알,1276,3310,4584,NNBC,*,T,리알,*,*,*,*
리얄,1277,3311,4582,NNBC,*,T,리얄,*,*,*,*
리엘,1278,3312,4615,NNBC,*,T,리엘,*,*,*,*
리터,1279,2965,4573,NNBC,*,F,리터,*,*,*,*
릴,1281,3313,5418,NNBC,*,T,릴,*,*,*,*
림,1282,3314,5928,NNBC,*,T,림,*,*,*,*
립,1283,3315,5636,NNBC,*,T,립,*,*,*,*
링기트,1284,2966,4582,NNBC,*,F,링기트,*,*,*,*
링크,1285,2967,4585,NNBC,*,F,링크,*,*,*,*
마,1286,2968,7284,NNBC,*,F,마,*,*,*,*
마당,1287,3316,5044,NNBC,*,T,마당,*,*,*,*
마디,1288,2969,4735,NNBC,*,F,마디,*,*,*,*
마력,1289,3317,4646,NNBC,*,T,마력,*,*,*,*
마력시,1290,2970,4582,NNBC,*,F,마력시,*,*,*,*
마르카,1291,2971,4582,NNBC,*,F,마르카,*,*,*,*
마르크,1292,2972,4977,NNBC,*,F,마르크,*,*,*,*
마리,1293,2973,3876,NNBC,*,F,마리,*,*,*,*
마이크로그램,1295,3318,3000,NNBC,*,T,마이크로그램,*,*,*,*
마이크로마이크로퀴리,1296,2974,4582,NNBC,*,F,마이크로마이크로퀴리,*,*,*,*
마이크로마이크로패럿,1297,3319,4582,NNBC,*,T,마이크로마이크로패럿,*,*,*,*
마이크로미크론,1298,3320,4582,NNBC,*,T,마이크로미크론,*,*,*,*
마이크로미터,1299,2975,4582,NNBC,*,F,마이크로미터,*,*,*,*
마이크로세컨드,1300,2976,4582,NNBC,*,F,마이크로세컨드,*,*,*,*
마이크로옴,1301,3321,4582,NNBC,*,T,마이크로옴,*,*,*,*
마이크로초,1302,2977,4582,NNBC,*,F,마이크로초,*,*,*,*
마이크로퀴리,1303,2978,4582,NNBC,*,F,마이크로퀴리,*,*,*,*
마이크로패럿,1304,3322,4582,NNBC,*,T,마이크로패럿,*,*,*,*
마일,1305,3323,4449,NNBC,*,T,마일,*,*,*,*
마장,1306,3324,4607,NNBC,*,T,마장,*,*,*,*
마지기,1307,2979,4582,NNBC,*,F,마지기,*,*,*,*
마하,1308,2980,4621,NNBC,*,F,마하,*,*,*,*
마하수,1309,2981,4582,NNBC,*,F,마하수,*,*,*,*
마헤,1310,2982,4582,NNBC,*,F,마헤,*,*,*,*
막,1311,3325,4885,NNBC,*,T,막,*,*,*,*
말,1312,3326,5168,NNBC,*,T,말,*,*,*,*
매,1313,2983,6519,NNBC,*,F,매,*,*,*,*
맥스웰,1314,3327,4582,NNBC,*,T,맥스웰,*,*,*,*
메가다인,1316,3328,4582,NNBC,*,T,메가다인,*,*,*,*
메가데스,1317,2984,4582,NNBC,*,F,메가데스,*,*,*,*
메가바,1318,2985,4582,NNBC,*,F,메가바,*,*,*,*
메가바이트,1319,2986,4582,NNBC,*,F,메가바이트,*,*,*,*
메가비트,1320,2987,4582,NNBC,*,F,메가비트,*,*,*,*
메가사이클,1321,3329,4582,NNBC,*,T,메가사이클,*,*,*,*
메가와트일,1322,3330,4582,NNBC,*,T,메가와트일,*,*,*,*
메가전자볼트,1323,2988,4582,NNBC,*,F,메가전자볼트,*,*,*,*
메가톤,1324,3331,4582,NNBC,*,T,메가톤,*,*,*,*
메가헤르츠,1325,2989,4582,NNBC,*,F,메가헤르츠,*,*,*,*
메그옴,1326,3332,4582,NNBC,*,T,메그옴,*,*,*,*
메브,1327,2990,4582,NNBC,*,F,메브,*,*,*,*
메시,1328,2991,4611,NNBC,*,F,메시,*,*,*,*
명,1329,3333,4199,NNBC,*,T,명,*,*,*,*
모,1330,2992,6920,NNBC,*,F,모,*,*,*,*
모금,1331,3334,4148,NNBC,*,T,모금,*,*,*,*
모라,1332,2993,4794,NNBC,*,F,모라,*,*,*,*
모르간단위,1333,2994,4582,NNBC,*,F,모르간단위,*,*,*,*
모숨,1334,3335,4582,NNBC,*,T,모숨,*,*,*,*
몰,1335,3336,5869,NNBC,*,T,몰,*,*,*,*
몰분자,1336,2995,4582,NNBC,*,F,몰분자,*,*,*,*
묘,1337,2996,5630,NNBC,*,F,묘,*,*,*,*
무,1338,2997,6374,NNBC,*,F,무,*,*,*,*
무더기,1339,2998,4766,NNBC,*,F,무더기,*,*,*,*
묶음,1340,3337,5128,NNBC,*,T,묶음,*,*,*,*
문,1341,3338,6979,NNBC,*,T,문,*,*,*,*
물리뢴트겐당량,1342,3339,4582,NNBC,*,T,물리뢴트겐당량,*,*,*,*
뭇,1343,3340,5432,NNBC,*,T,뭇,*,*,*,*
뭉치,1344,2999,4942,NNBC,*,F,뭉치,*,*,*,*
미,1345,3000,6553,NNBC,*,F,미,*,*,*,*
미국톤,1346,3341,4582,NNBC,*,T,미국톤,*,*,*,*
미크론,1347,3342,4582,NNBC,*,T,미크론,*,*,*,*
미터,1348,3001,4083,NNBC,*,F,미터,*,*,*,*
미터촉광,1349,3343,4582,NNBC,*,T,미터촉광,*,*,*,*
미터톤,1350,3344,4582,NNBC,*,T,미터톤,*,*,*,*
밀,1351,3345,5555,NNBC,*,T,밀,*,*,*,*
밀리,1352,3002,4570,NNBC,*,F,밀리,*,*,*,*
밀리갈,1353,3346,4582,NNBC,*,T,밀리갈,*,*,*,*
밀리그램,1354,3347,3000,NNBC,*,T,밀리그램,*,*,*,*
밀리뢴트겐,1355,3348,4582,NNBC,*,T,밀리뢴트겐,*,*,*,*
밀리리터,1356,3003,4532,NNBC,*,F,밀리리터,*,*,*,*
밀리몰,1357,3349,4582,NNBC,*,T,밀리몰,*,*,*,*
밀리미크론,1358,3350,4582,NNBC,*,T,밀리미크론,*,*,*,*
밀리미터,1359,3004,4582,NNBC,*,F,밀리미터,*,*,*,*
밀리바,1360,3005,4582,NNBC,*,F,밀리바,*,*,*,*
밀리볼트,1361,3006,4582,NNBC,*,F,밀리볼트,*,*,*,*
밀리암페어,1362,3007,4582,NNBC,*,F,밀리암페어,*,*,*,*
밀리와트,1363,3008,4582,NNBC,*,F,밀리와트,*,*,*,*
밀리퀴리,1364,3009,4582,NNBC,*,F,밀리퀴리,*,*,*,*
밉스,1365,3010,4582,NNBC,*,F,밉스,*,*,*,*
바,1366,3011,6640,NNBC,*,F,바,*,*,*,*
바가지,1367,3012,4081,NNBC,*,F,바가지,*,*,*,*
바구니,1368,3013,4741,NNBC,*,F,바구니,*,*,*,*
바람,1369,3351,5694,NNBC,*,T,바람,*,*,*,*
바이트,1370,3014,4870,NNBC,*,F,바이트,*,*,*,*
바퀴,1371,3015,4410,NNBC,*,F,바퀴,*,*,*,*
바탕,1373,3352,4890,NNBC,*,T,바탕,*,*,*,*
바트,1374,3016,4583,NNBC,*,F,바트,*,*,*,*
박,1375,3353,5669,NNBC,*,T,박,*,*,*,*
박자,1376,3017,5036,NNBC,*,F,박자,*,*,*,*
반,1377,3354,6233,NNBC,*,T,반,*,*,*,*
발,1378,3355,6232,NNBC,*,T,발,*,*,*,*
발보아,1379,3018,4582,NNBC,*,F,발보아,*,*,*,*
발짝,1380,3356,4562,NNBC,*,T,발짝,*,*,*,*
방,1381,3357,5888,NNBC,*,T,방,*,*,*,*
방울,1382,3358,5029,NNBC,*,T,방울,*,*,*,*
배,1383,3019,5706,NNBC,*,F,배,*,*,*,*
배럴,1384,3359,4582,NNBC,*,T,배럴,*,*,*,*
번,1385,3360,3865,NNBC,*,T,번,*,*,*,*
번수,1386,3020,4582,NNBC,*,F,번수,*,*,*,*
번지,1387,3021,4882,NNBC,*,F,번지,*,*,*,*
벌,1391,3361,4519,NNBC,*,T,벌,*,*,*,*
범,1392,3362,6056,NNBC,*,T,범,*,*,*,*
베가톤,1393,3363,4582,NNBC,*,T,베가톤,*,*,*,*
베브,1394,3022,4582,NNBC,*,F,베브,*,*,*,*
베크렐,1395,3364,4582,NNBC,*,T,베크렐,*,*,*,*
벨,1396,3365,5054,NNBC,*,T,벨,*,*,*,*
병,1397,3366,5657,NNBC,*,T,병,*,*,*,*
보,1398,3023,6422,NNBC,*,F,보,*,*,*,*
보따리,1399,3024,4463,NNBC,*,F,보따리,*,*,*,*
보루,1400,3025,4581,NNBC,*,F,보루,*,*,*,*
보메,1401,3026,4582,NNBC,*,F,보메,*,*,*,*
보지락,1402,3367,4582,NNBC,*,T,보지락,*,*,*,*
본,1403,3368,6457,NNBC,*,T,본,*,*,*,*
볼트,1404,3027,4568,NNBC,*,F,볼트,*,*,*,*
볼트암페어,1405,3028,4582,NNBC,*,F,볼트암페어,*,*,*,*
봉지,1406,3029,4617,NNBC,*,F,봉지,*,*,*,*
봉투,1407,3030,4629,NNBC,*,F,봉투,*,*,*,*
부,1408,3031,5084,NNBC,*,F,부,*,*,*,*
부대,1409,3032,4614,NNBC,*,F,부대,*,*,*,*
부류,1410,3033,4573,NNBC,*,F,부류,*,*,*,*
부셸,1411,3369,4582,NNBC,*,T,부셸,*,*,*,*
분,1412,3370,5312,NNBC,*,T,분,*,*,*,*
불,1413,3371,5644,NNBC,*,T,불,*,*,*,*
비르,1414,3034,4582,NNBC,*,F,비르,*,*,*,*
비티유,1415,3035,4582,NNBC,*,F,비티유,*,*,*,*
비피에스,1416,3036,4582,NNBC,*,F,비피에스,*,*,*,*
빌리언일렉트론볼트,1417,3037,4582,NNBC,*,F,빌리언일렉트론볼트,*,*,*,*
뼘,1418,3372,4438,NNBC,*,T,뼘,*,*,*,*
뿌리,1419,3038,4563,NNBC,*,F,뿌리,*,*,*,*
사람,1420,3373,5561,NNBC,*,T,사람,*,*,*,*
사발,1421,3374,4572,NNBC,*,T,사발,*,*,*,*
사이클,1422,3375,4582,NNBC,*,T,사이클,*,*,*,*
사탕,1423,3376,4678,NNBC,*,T,사탕,*,*,*,*
삭,1424,3377,5512,NNBC,*,T,삭,*,*,*,*
살,1425,3378,3945,NNBC,*,T,살,*,*,*,*
삽,1426,3379,4715,NNBC,*,T,삽,*,*,*,*
상자,1427,3039,4632,NNBC,*,F,상자,*,*,*,*
상팀,1428,3380,4582,NNBC,*,T,상팀,*,*,*,*
새,1429,3040,6427,NNBC,*,F,새,*,*,*,*
서큘러밀,1430,3381,4582,NNBC,*,T,서큘러밀,*,*,*,*
석,1431,3382,6016,NNBC,*,T,석,*,*,*,*
석유환산톤,1432,3383,4582,NNBC,*,T,석유환산톤,*,*,*,*
선,1433,3384,7076,NNBC,*,T,선,*,*,*,*
섬,1434,3385,5290,NNBC,*,T,섬,*,*,*,*
세,1435,3041,5660,NNBC,*,F,세,*,*,*,*
세대,1436,3042,4999,NNBC,*,F,세대,*,*,*,*
세제곱미터,1437,3043,4582,NNBC,*,F,세제곱미터,*,*,*,*
세제곱센티미터,1438,3044,4582,NNBC,*,F,세제곱센티미터,*,*,*,*
센트,1441,3045,4674,NNBC,*,F,센트,*,*,*,*
센티,1442,3046,4752,NNBC,*,F,센티,*,*,*,*
센티그램,1443,3386,3000,NNBC,*,T,센티그램,*,*,*,*
센티리터,1444,3047,4582,NNBC,*,F,센티리터,*,*,*,*
센티미터,1445,3048,4201,NNBC,*,F,센티미터,*,*,*,*
셀로,1446,3049,4582,NNBC,*,F,셀로,*,*,*,*
속,1447,3387,5456,NNBC,*,T,속,*,*,*,*
손,1448,3388,6019,NNBC,*,T,손,*,*,*,*
송이,1449,3050,4748,NNBC,*,F,송이,*,*,*,*
쇼트톤,1450,3389,4582,NNBC,*,T,쇼트톤,*,*,*,*
수,1451,3051,6769,NNBC,*,F,수,*,*,*,*
수은주미터,1452,3052,4582,NNBC,*,F,수은주미터,*,*,*,*
수은주밀리미터,1453,3053,4582,NNBC,*,F,수은주밀리미터,*,*,*,*
숟가락,1454,3390,4141,NNBC,*,T,숟가락,*,*,*,*
숟갈,1455,3391,4889,NNBC,*,T,숟갈,*,*,*,*
술,1456,3392,5770,NNBC,*,T,술,*,*,*,*
승,1457,3393,5267,NNBC,*,T,승,*,*,*,*
시,1458,3054,5419,NNBC,*,F,시,*,*,*,*
시간,1459,3394,4189,NNBC,*,T,시간,*,*,*,*
시버트,1460,3055,4582,NNBC,*,F,시버트,*,*,*,*
시시,1461,3056,4715,NNBC,*,F,시시,*,*,*,*
식,1462,3395,6996,NNBC,*,T,식,*,*,*,*
실,1463,3396,7044,NNBC,*,T,실,*,*,*,*
실링,1464,3397,4582,NNBC,*,T,실링,*,*,*,*
쌈,1465,3398,4608,NNBC,*,T,쌈,*,*,*,*
쌍,1466,3399,6142,NNBC,*,T,쌍,*,*,*,*
아르,1467,3057,4846,NNBC,*,F,아르,*,*,*,*
아르피엠,1468,3400,4582,NNBC,*,T,아르피엠,*,*,*,*
아름,1469,3401,5665,NNBC,*,T,아름,*,*,*,*
아보그램,1470,3402,3000,NNBC,*,T,아보그램,*,*,*,*
아인슈타인,1471,3403,4658,NNBC,*,T,아인슈타인,*,*,*,*
악장,1472,3404,4588,NNBC,*,T,악장,*,*,*,*
알,1473,3405,5897,NNBC,*,T,알,*,*,*,*
암페어,1474,3058,4582,NNBC,*,F,암페어,*,*,*,*
암페어시,1475,3059,4582,NNBC,*,F,암페어시,*,*,*,*
액트,1476,3060,4582,NNBC,*,F,액트,*,*,*,*
앵커,1477,3061,4534,NNBC,*,F,앵커,*,*,*,*
야드,1478,3062,4994,NNBC,*,F,야드,*,*,*,*
약용온스,1479,3063,4582,NNBC,*,F,약용온스,*,*,*,*
에르그,1480,3064,4582,NNBC,*,F,에르그,*,*,*,*
에이유,1481,3065,4597,NNBC,*,F,에이유,*,*,*,*
에이치에프유,1482,3066,4582,NNBC,*,F,에이치에프유,*,*,*,*
에이치피,1483,3067,4582,NNBC,*,F,에이치피,*,*,*,*
에이커,1484,3068,4582,NNBC,*,F,에이커,*,*,*,*
에이피아이도,1485,3069,4582,NNBC,*,F,에이피아이도,*,*,*,*
엔,1486,3406,5320,NNBC,*,T,엔,*,*,*,*
엘레,1487,3070,4582,NNBC,*,F,엘레,*,*,*,*
엠더블유디,1488,3071,4582,NNBC,*,F,엠더블유디,*,*,*,*
엠엠시,1489,3072,4582,NNBC,*,F,엠엠시,*,*,*,*
엠피에이치,1490,3073,4582,NNBC,*,F,엠피에이치,*,*,*,*
역시간,1491,3407,4583,NNBC,*,T,역시간,*,*,*,*
역표년,1492,3408,4582,NNBC,*,T,역표년,*,*,*,*
연,1493,3409,7663,NNBC,*,T,연,*,*,*,*
연발,1494,3410,4582,NNBC,*,T,연발,*,*,*,*
엽,1495,3411,4979,NNBC,*,T,엽,*,*,*,*
영,1496,3412,6780,NNBC,*,T,영,*,*,*,*
영국톤,1497,3413,4582,NNBC,*,T,영국톤,*,*,*,*
영리,1498,3074,4605,NNBC,*,F,영리,*,*,*,*
영척,1499,3414,4582,NNBC,*,T,영척,*,*,*,*
영톤,1500,3415,4582,NNBC,*,T,영톤,*,*,*,*
옥타브,1501,3075,5172,NNBC,*,F,옥타브,*,*,*,*
온스,1502,3076,4586,NNBC,*,F,온스,*,*,*,*
옴,1503,3416,4659,NNBC,*,T,옴,*,*,*,*
옴큼,1504,3417,4582,NNBC,*,T,옴큼,*,*,*,*
옹스트롬,1505,3418,4582,NNBC,*,T,옹스트롬,*,*,*,*
와트,1506,3077,4582,NNBC,*,F,와트,*,*,*,*
와트시,1507,3078,4582,NNBC,*,F,와트시,*,*,*,*
와트초,1508,3079,4582,NNBC,*,F,와트초,*,*,*,*
외레,1509,3080,4582,NNBC,*,F,외레,*,*,*,*
우리,1511,3081,5509,NNBC,*,F,우리,*,*,*,*
움큼,1512,3419,4582,NNBC,*,T,움큼,*,*,*,*
원,1513,3420,5611,NNBC,*,T,원,*,*,*,*
월,1514,3421,5148,NNBC,*,T,월,*,*,*,*
웨버,1515,3082,4582,NNBC,*,F,웨버,*,*,*,*
위,1516,3083,4784,NNBC,*,F,위,*,*,*,*
위안,1517,3422,4488,NNBC,*,T,위안,*,*,*,*
유로,1521,3084,4789,NNBC,*,F,유로,*,*,*,*
유카와,1522,3085,4582,NNBC,*,F,유카와,*,*,*,*
육리,1523,3086,4582,NNBC,*,F,육리,*,*,*,*
은량,1524,3423,4582,NNBC,*,T,은량,*,*,*,*
음향옴,1525,3424,4582,NNBC,*,T,음향옴,*,*,*,*
인,1526,3425,8377,NNBC,*,T,인,*,*,*,*
인마일,1527,3426,4582,NNBC,*,T,인마일,*,*,*,*
인시,1528,3087,4896,NNBC,*,F,인시,*,*,*,*
인치,1529,3088,4257,NNBC,*,F,인치,*,*,*,*
인킬로,1530,3089,4582,NNBC,*,F,인킬로,*,*,*,*
일,1531,3427,4546,NNBC,*,T,일,*,*,*,*
일렉트론볼트,1532,3090,4582,NNBC,*,F,일렉트론볼트,*,*,*,*
입방미터,1533,3091,4582,NNBC,*,F,입방미터,*,*,*,*
입평,1534,3428,4582,NNBC,*,T,입평,*,*,*,*
잎,1535,3429,5159,NNBC,*,T,잎,*,*,*,*
자,1536,3092,7318,NNBC,*,F,자,*,*,*,*
자루,1537,3093,4837,NNBC,*,F,자루,*,*,*,*
자밤,1538,3430,4582,NNBC,*,T,자밤,*,*,*,*
자오,1539,3094,4697,NNBC,*,F,자오,*,*,*,*
작,1540,3431,6011,NNBC,*,T,작,*,*,*,*
잔,1541,3432,6723,NNBC,*,T,잔,*,*,*,*
장,1542,3433,5456,NNBC,*,T,장,*,*,*,*
장도막,1543,3434,4582,NNBC,*,T,장도막,*,*,*,*
재,1544,3095,6897,NNBC,*,F,재,*,*,*,*
잰스키,1545,3096,4582,NNBC,*,F,잰스키,*,*,*,*
쟁기,1546,3097,4585,NNBC,*,F,쟁기,*,*,*,*
전,1547,3435,7701,NNBC,*,T,전,*,*,*,*
전자볼트,1548,3098,4582,NNBC,*,F,전자볼트,*,*,*,*
절,1549,3436,6605,NNBC,*,T,절,*,*,*,*
점,1550,3437,5144,NNBC,*,T,점,*,*,*,*
접,1551,3438,5759,NNBC,*,T,접,*,*,*,*
접시,1552,3099,4801,NNBC,*,F,접시,*,*,*,*
젓가락,1553,3439,4073,NNBC,*,T,젓가락,*,*,*,*
정,1554,3440,7172,NNBC,*,T,정,*,*,*,*
정보,1555,3100,4073,NNBC,*,F,정보,*,*,*,*
제,1556,3101,7073,NNBC,*,F,제,*,*,*,*
제곱미터,1557,3102,4582,NNBC,*,F,제곱미터,*,*,*,*
제곱센티미터,1558,3103,4582,NNBC,*,F,제곱센티미터,*,*,*,*
조,1560,3104,7286,NNBC,*,F,조,*,*,*,*
조각,1561,3441,4926,NNBC,*,T,조각,*,*,*,*
조짐,1562,3442,4531,NNBC,*,T,조짐,*,*,*,*
족,1563,3443,6004,NNBC,*,T,족,*,*,*,*
종류,1564,3105,4670,NNBC,*,F,종류,*,*,*,*
좌,1565,3106,5329,NNBC,*,F,좌,*,*,*,*
주,1566,3107,5228,NNBC,*,F,주,*,*,*,*
주간,1567,3444,4437,NNBC,*,T,주간,*,*,*,*
주기,1568,3108,4625,NNBC,*,F,주기,*,*,*,*
주년,1569,3445,4204,NNBC,*,T,주년,*,*,*,*
주먹,1570,3446,4288,NNBC,*,T,주먹,*,*,*,*
주일,1571,3447,3596,NNBC,*,T,주일,*,*,*,*
주전자,1572,3109,4550,NNBC,*,F,주전자,*,*,*,*
줄,1573,3448,6070,NNBC,*,T,줄,*,*,*,*
줄기,1574,3110,4153,NNBC,*,F,줄기,*,*,*,*
줌,1575,3449,5492,NNBC,*,T,줌,*,*,*,*
중량그램,1576,3450,3000,NNBC,*,T,중량그램,*,*,*,*
중량킬로그램,1577,3451,3000,NNBC,*,T,중량킬로그램,*,*,*,*
중량톤,1578,3452,4582,NNBC,*,T,중량톤,*,*,*,*
즈워티,1579,3111,4582,NNBC,*,F,즈워티,*,*,*,*
지,1580,3112,7672,NNBC,*,F,지,*,*,*,*
지도거리,1581,3113,4582,NNBC,*,F,지도거리,*,*,*,*
지도단위,1582,3114,4582,NNBC,*,F,지도단위,*,*,*,*
지멘스,1583,3115,4582,NNBC,*,F,지멘스,*,*,*,*
질,1584,3453,6495,NNBC,*,T,질,*,*,*,*
짐,1585,3454,5791,NNBC,*,T,짐,*,*,*,*
집,1586,3455,5864,NNBC,*,T,집,*,*,*,*
짝,1587,3456,5535,NNBC,*,T,짝,*,*,*,*
쪽,1589,3457,5692,NNBC,*,T,쪽,*,*,*,*
차,1590,3116,4978,NNBC,*,F,차,*,*,*,*
차례,1591,3117,6299,NNBC,*,F,차례,*,*,*,*
차선,1592,3458,4790,NNBC,*,T,차선,*,*,*,*
채,1593,3118,5053,NNBC,*,F,채,*,*,*,*
척,1594,3459,4937,NNBC,*,T,척,*,*,*,*
천문단위,1595,3119,4582,NNBC,*,F,천문단위,*,*,*,*
첩,1596,3460,4930,NNBC,*,T,첩,*,*,*,*
체,1597,3120,6760,NNBC,*,F,체,*,*,*,*
체르보네츠,1598,3121,4582,NNBC,*,F,체르보네츠,*,*,*,*
체인,1599,3461,5052,NNBC,*,T,체인,*,*,*,*
초,1600,3122,5501,NNBC,*,F,초,*,*,*,*
촉,1601,3462,4987,NNBC,*,T,촉,*,*,*,*
촉광,1602,3463,4582,NNBC,*,T,촉광,*,*,*,*
촉력,1603,3464,4582,NNBC,*,T,촉력,*,*,*,*
촌,1604,3465,5471,NNBC,*,T,촌,*,*,*,*
추,1605,3123,6485,NNBC,*,F,추,*,*,*,*
축,1606,3466,6055,NNBC,*,T,축,*,*,*,*
춤,1607,3467,4240,NNBC,*,T,춤,*,*,*,*
층,1608,3468,6032,NNBC,*,T,층,*,*,*,*
치,1609,3124,5889,NNBC,*,F,치,*,*,*,*
칭,1610,3469,5682,NNBC,*,T,칭,*,*,*,*
카셀,1611,3470,4582,NNBC,*,T,카셀,*,*,*,*
카운트,1612,3125,4300,NNBC,*,F,카운트,*,*,*,*
카이저,1613,3126,4582,NNBC,*,F,카이저,*,*,*,*
칸,1614,3471,4105,NNBC,*,T,칸,*,*,*,*
칸델라,1615,3127,4908,NNBC,*,F,칸델라,*,*,*,*
칸통,1616,3472,4582,NNBC,*,T,칸통,*,*,*,*
칼로리,1617,3128,4137,NNBC,*,F,칼로리,*,*,*,*
캐럿,1618,3473,4582,NNBC,*,T,캐럿,*,*,*,*
캔,1619,3474,4955,NNBC,*,T,캔,*,*,*,*
켈빈,1621,3475,4582,NNBC,*,T,켈빈,*,*,*,*
켜,1622,3129,4527,NNBC,*,F,켜,*,*,*,*
켤레,1623,3130,4087,NNBC,*,F,켤레,*,*,*,*
코,1624,3131,5974,NNBC,*,F,코,*,*,*,*
코드,1625,3132,4648,NNBC,*,F,코드,*,*,*,*
코루나,1626,3133,4582,NNBC,*,F,코루나,*,*,*,*
쾌,1627,3134,5002,NNBC,*,F,쾌,*,*,*,*
쿨롬,1628,3476,4582,NNBC,*,T,쿨롬,*,*,*,*
쿼터,1629,3135,4615,NNBC,*,F,쿼터,*,*,*,*
쿼트,1630,3136,4582,NNBC,*,F,쿼트,*,*,*,*
퀴리,1631,3137,4582,NNBC,*,F,퀴리,*,*,*,*
퀸틀,1632,3477,4582,NNBC,*,T,퀸틀,*,*,*,*
큐,1633,3138,5377,NNBC,*,F,큐,*,*,*,*
큐빗,1634,3478,4582,NNBC,*,T,큐빗,*,*,*,*
큐섹,1635,3479,4582,NNBC,*,T,큐섹,*,*,*,*
크로나,1636,3139,4582,NNBC,*,F,크로나,*,*,*,*
크로네,1637,3140,4582,NNBC,*,F,크로네,*,*,*,*
크로커다일,1638,3480,4582,NNBC,*,T,크로커다일,*,*,*,*
크루제이로,1639,3141,4582,NNBC,*,F,크루제이로,*,*,*,*
킬로,1642,3142,4862,NNBC,*,F,킬로,*,*,*,*
킬로그램,1643,3481,3000,NNBC,*,T,킬로그램,*,*,*,*
킬로그램미터,1644,3143,4582,NNBC,*,F,킬로그램미터,*,*,*,*
킬로그램중,1645,3482,4582,NNBC,*,T,킬로그램중,*,*,*,*
킬로그램칼로리,1646,3144,4582,NNBC,*,F,킬로그램칼로리,*,*,*,*
킬로리터,1647,3145,4582,NNBC,*,F,킬로리터,*,*,*,*
킬로메가사이클,1648,3483,4582,NNBC,*,T,킬로메가사이클,*,*,*,*
킬로미터,1649,3146,4419,NNBC,*,F,킬로미터,*,*,*,*
킬로바,1650,3147,4582,NNBC,*,F,킬로바,*,*,*,*
킬로바이트,1651,3148,4582,NNBC,*,F,킬로바이트,*,*,*,*
킬로볼트,1652,3149,4582,NNBC,*,F,킬로볼트,*,*,*,*
킬로볼트암페어,1653,3150,4582,NNBC,*,F,킬로볼트암페어,*,*,*,*
킬로사이클,1654,3484,4582,NNBC,*,T,킬로사이클,*,*,*,*
킬로스터,1655,3151,4582,NNBC,*,F,킬로스터,*,*,*,*
킬로암페어,1656,3152,4582,NNBC,*,F,킬로암페어,*,*,*,*
킬로암페어시,1657,3153,4582,NNBC,*,F,킬로암페어시,*,*,*,*
킬로옴,1658,3485,4582,NNBC,*,T,킬로옴,*,*,*,*
킬로와트,1659,3154,4582,NNBC,*,F,킬로와트,*,*,*,*
킬로와트시,1660,3155,4582,NNBC,*,F,킬로와트시,*,*,*,*
킬로전자볼트,1661,3156,4582,NNBC,*,F,킬로전자볼트,*,*,*,*
킬로줄,1662,3486,4582,NNBC,*,T,킬로줄,*,*,*,*
킬로칼로리,1663,3157,4582,NNBC,*,F,킬로칼로리,*,*,*,*
킬로퀴리,1664,3158,4582,NNBC,*,F,킬로퀴리,*,*,*,*
킬로톤,1665,3487,4582,NNBC,*,T,킬로톤,*,*,*,*
킬로파섹,1666,3488,4582,NNBC,*,T,킬로파섹,*,*,*,*
킬로헤르츠,1667,3159,4582,NNBC,*,F,킬로헤르츠,*,*,*,*
타,1668,3160,6374,NNBC,*,F,타,*,*,*,*
탈러,1669,3161,4582,NNBC,*,F,탈러,*,*,*,*
탕,1670,3489,5486,NNBC,*,T,탕,*,*,*,*
테,1671,3162,5136,NNBC,*,F,테,*,*,*,*
테라바이트,1672,3163,4582,NNBC,*,F,테라바이트,*,*,*,*
테슬라,1673,3164,4582,NNBC,*,F,테슬라,*,*,*,*
텍스,1674,3165,4602,NNBC,*,F,텍스,*,*,*,*
토르,1675,3166,4667,NNBC,*,F,토르,*,*,*,*
토리첼리,1676,3167,4582,NNBC,*,F,토리첼리,*,*,*,*
토막,1677,3490,4468,NNBC,*,T,토막,*,*,*,*
톤,1678,3491,5125,NNBC,*,T,톤,*,*,*,*
톤킬로,1679,3168,4582,NNBC,*,F,톤킬로,*,*,*,*
톤킬로미터,1680,3169,4582,NNBC,*,F,톤킬로미터,*,*,*,*
톨,1681,3492,4249,NNBC,*,T,톨,*,*,*,*
톳,1682,3493,4582,NNBC,*,T,톳,*,*,*,*
통,1683,3494,5915,NNBC,*,T,통,*,*,*,*
통화,1684,3170,4078,NNBC,*,F,통화,*,*,*,*
트럭,1685,3495,4947,NNBC,*,T,트럭,*,*,*,*
트로이온스,1686,3171,4582,NNBC,*,F,트로이온스,*,*,*,*
트로이파운드,1687,3172,4582,NNBC,*,F,트로이파운드,*,*,*,*
티오이,1688,3173,4582,NNBC,*,F,티오이,*,*,*,*
파,1689,3174,6417,NNBC,*,F,파,*,*,*,*
파딩,1690,3496,4582,NNBC,*,T,파딩,*,*,*,*
파섹,1691,3497,4582,NNBC,*,T,파섹,*,*,*,*
파스칼,1692,3498,4563,NNBC,*,T,파스칼,*,*,*,*
파운달,1693,3499,4582,NNBC,*,T,파운달,*,*,*,*
파운드,1694,3175,4070,NNBC,*,F,파운드,*,*,*,*
파인트,1695,3176,4582,NNBC,*,F,파인트,*,*,*,*
판,1696,3500,6255,NNBC,*,T,판,*,*,*,*
패덤,1697,3501,4582,NNBC,*,T,패덤,*,*,*,*
패럿,1698,3502,4582,NNBC,*,T,패럿,*,*,*,*
퍼밀,1700,3503,4582,NNBC,*,T,퍼밀,*,*,*,*
퍼센트,1701,3177,3751,NNBC,*,F,퍼센트,*,*,*,*
펀,1704,3504,4706,NNBC,*,T,펀,*,*,*,*
펄롱,1705,3505,4582,NNBC,*,T,펄롱,*,*,*,*
페니,1706,3178,4582,NNBC,*,F,페니,*,*,*,*
페니웨이트,1707,3179,4582,NNBC,*,F,페니웨이트,*,*,*,*
페니히,1708,3180,4582,NNBC,*,F,페니히,*,*,*,*
페르미,1709,3181,4582,NNBC,*,F,페르미,*,*,*,*
페세타,1710,3182,4582,NNBC,*,F,페세타,*,*,*,*
페소,1711,3183,4593,NNBC,*,F,페소,*,*,*,*
펜스,1712,3184,4589,NNBC,*,F,펜스,*,*,*,*
편,1713,3506,5670,NNBC,*,T,편,*,*,*,*
편거리,1714,3185,4582,NNBC,*,F,편거리,*,*,*,*
평,1715,3507,4677,NNBC,*,T,평,*,*,*,*
평석,1716,3508,4582,NNBC,*,T,평석,*,*,*,*
포,1717,3186,6834,NNBC,*,F,포,*,*,*,*
포기,1718,3187,4231,NNBC,*,F,포기,*,*,*,*
포린트,1719,3188,4582,NNBC,*,F,포린트,*,*,*,*
포인트,1720,3189,5218,NNBC,*,F,포인트,*,*,*,*
포트,1721,3190,4604,NNBC,*,F,포트,*,*,*,*
폭,1722,3509,5336,NNBC,*,T,폭,*,*,*,*
폰,1723,3510,4829,NNBC,*,T,폰,*,*,*,*
푸드,1724,3191,4610,NNBC,*,F,푸드,*,*,*,*
푸아즈,1725,3192,4582,NNBC,*,F,푸아즈,*,*,*,*
푼,1726,3511,3601,NNBC,*,T,푼,*,*,*,*
푼쭝,1727,3512,4582,NNBC,*,T,푼쭝,*,*,*,*
푼트,1728,3193,4582,NNBC,*,F,푼트,*,*,*,*
풋파운드,1729,3194,4582,NNBC,*,F,풋파운드,*,*,*,*
프랑,1730,3513,4711,NNBC,*,T,프랑,*,*,*,*
프레임,1731,3514,4924,NNBC,*,T,프레임,*,*,*,*
프로,1732,3195,4947,NNBC,*,F,프로,*,*,*,*
프로밀,1733,3515,4582,NNBC,*,T,프로밀,*,*,*,*
프루프,1737,3196,4582,NNBC,*,F,프루프,*,*,*,*
프사이,1738,3197,4582,NNBC,*,F,프사이,*,*,*,*
프사이그,1739,3198,4582,NNBC,*,F,프사이그,*,*,*,*
플로린,1740,3516,4582,NNBC,*,T,플로린,*,*,*,*
피리어드,1741,3199,4582,NNBC,*,F,피리어드,*,*,*,*
피에스,1742,3200,4593,NNBC,*,F,피에스,*,*,*,*
피치,1743,3201,4633,NNBC,*,F,피치,*,*,*,*
피컬,1744,3517,4582,NNBC,*,T,피컬,*,*,*,*
피코세컨드,1745,3202,4582,NNBC,*,F,피코세컨드,*,*,*,*
피코패럿,1746,3518,4582,NNBC,*,T,피코패럿,*,*,*,*
피트,1747,3203,4530,NNBC,*,F,피트,*,*,*,*
피피비,1748,3204,4582,NNBC,*,F,피피비,*,*,*,*
피피에이치엠,1749,3519,4582,NNBC,*,T,피피에이치엠,*,*,*,*
피피엠,1750,3520,4582,NNBC,*,T,피피엠,*,*,*,*
필,1751,3521,5754,NNBC,*,T,필,*,*,*,*
필지,1752,3205,4582,NNBC,*,F,필지,*,*,*,*
하,1753,3206,6336,NNBC,*,F,하,*,*,*,*
학급,1754,3522,4713,NNBC,*,T,학급,*,*,*,*
학기,1755,3207,5875,NNBC,*,F,학기,*,*,*,*
학년,1756,3523,5972,NNBC,*,T,학년,*,*,*,*
할,1757,3524,6092,NNBC,*,T,할,*,*,*,*
합,1758,3525,6098,NNBC,*,T,합,*,*,*,*
항공마일,1759,3526,4582,NNBC,*,T,항공마일,*,*,*,*
항아리,1760,3208,4645,NNBC,*,F,항아리,*,*,*,*
해,1761,3209,6321,NNBC,*,F,해,*,*,*,*
해리,1762,3210,4653,NNBC,*,F,해리,*,*,*,*
헤르츠,1764,3211,4582,NNBC,*,F,헤르츠,*,*,*,*
헤프너촉,1765,3527,4582,NNBC,*,T,헤프너촉,*,*,*,*
헥타르,1766,3212,4582,NNBC,*,F,헥타르,*,*,*,*
헥토그램,1767,3528,3000,NNBC,*,T,헥토그램,*,*,*,*
헥토리터,1768,3213,4582,NNBC,*,F,헥토리터,*,*,*,*
헥토미터,1769,3214,4582,NNBC,*,F,헥토미터,*,*,*,*
헥토파스칼,1770,3529,4582,NNBC,*,T,헥토파스칼,*,*,*,*
헨리,1771,3215,4582,NNBC,*,F,헨리,*,*,*,*
호,1772,3216,5149,NNBC,*,F,호,*,*,*,*
홉,1774,3530,3956,NNBC,*,T,홉,*,*,*,*
환,1776,3531,6261,NNBC,*,T,환,*,*,*,*
활,1777,3532,5500,NNBC,*,T,활,*,*,*,*
홰,1778,3217,4582,NNBC,*,F,홰,*,*,*,*
회,1779,3218,5296,NNBC,*,F,회,*,*,*,*
획,1780,3533,5704,NNBC,*,T,획,*,*,*,*
훌덴,1783,3534,4582,NNBC,*,T,훌덴,*,*,*,*
